{
  "name": "1k",
  "do": "",
  "dont": "",
  "tags": [
    "1000",
    "1K",
    "alphabet",
    "character",
    "digit",
    "display",
    "font",
    "letter",
    "number",
    "pixel",
    "pixels",
    "resolution",
    "symbol",
    "text",
    "type",
    "video"
  ],
  "category": ["av"],
  "type": "static",
  "label": "None",
  "date": "03/03/2021",
  "hasOutlined": true
}
