{
  "name": "add_alert",
  "do": "",
  "dont": "",
  "tags": ["add", "notification", "alert", "bell", "plus"],
  "category": ["alert"],
  "type": "static",
  "hasOutlined": true,
  "date": "30/11/2020"
}
