{
  "name": "add_location_alt",
  "do": "",
  "dont": "",
  "tags": [
    "add",
    "destination",
    "direction",
    "location",
    "maps",
    "pin",
    "place",
    "plus",
    "stop"
  ],
  "category": ["maps"],
  "type": "static",
  "hasOutlined": true,
  "date": "30/11/2020"
}
