{
  "name": "airplay",
  "do": "",
  "dont": "",
  "tags": [
    "Airplay",
    "arrow",
    "screen",
    "control",
    "device",
    "signal",
    "connect"
  ],
  "category": ["av"],
  "type": "static",
  "hasOutlined": true,
  "date": "30/11/2020"
}
