{
  "name": "alt_route",
  "do": "",
  "dont": "",
  "tags": ["map", "location", "navigation", "direction", "pin"],
  "category": ["maps"],
  "type": "static",
  "hasOutlined": true,
  "date": "30/11/2020"
}
