{
  "name": "amp_stories",
  "do": "",
  "dont": "",
  "tags": ["amp", "flow", "gallery", "stories", "view"],
  "category": ["content"],
  "type": "static",
  "hasOutlined": true,
  "date": "30/11/2020"
}
