{
  "name": "android",
  "do": "",
  "dont": "",
  "tags": ["character", "mascot", "android", "logo", "toy"],
  "category": ["action"],
  "type": "static",
  "hasOutlined": true,
  "date": "30/11/2020"
}
