{
  "name": "apartment",
  "do": "",
  "dont": "",
  "tags": [
    "accommodation",
    "apartment",
    "architecture",
    "building",
    "city",
    "company",
    "estate",
    "flat",
    "home",
    "house",
    "office",
    "place",
    "real",
    "residence",
    "residential",
    "shelter",
    "units",
    "workplace"
  ],
  "category": ["places"],
  "type": "static",
  "hasOutlined": true,
  "date": "30/11/2020"
}
