{
  "name": "app_settings_alt",
  "do": "",
  "dont": "",
  "tags": [
    "Android",
    "OS",
    "app",
    "applications",
    "cell",
    "device",
    "gear",
    "hardware",
    "iOS",
    "mobile",
    "phone",
    "setting",
    "settings",
    "tablet"
  ],
  "category": ["navigation"],
  "type": "static",
  "hasOutlined": true,
  "date": "30/11/2020"
}
