{
  "name": "architecture",
  "do": "",
  "dont": "",
  "tags": [
    "architecture",
    "art",
    "compass",
    "design",
    "draw",
    "drawing",
    "engineering",
    "geometric",
    "tool"
  ],
  "category": ["social"],
  "type": "static",
  "hasOutlined": true,
  "date": "30/11/2020"
}
