{
  "name": "arrow_left",
  "do": "",
  "dont": "",
  "tags": ["arrow", "arrows", "direction", "left"],
  "category": ["navigation"],
  "type": "static",
  "hasOutlined": true,
  "date": "30/11/2020"
}
