{
  "name": "arrow_downward",
  "do": "",
  "dont": "",
  "tags": ["direction", "down", "downwards", "dash"],
  "category": ["navigation"],
  "type": "static",
  "hasOutlined": true,
  "date": "30/11/2020"
}
