{
  "name": "attach_money",
  "do": "",
  "dont": "",
  "tags": [
    "add",
    "link",
    "pay",
    "media",
    "commerce",
    "file",
    "money",
    "online",
    "e-commerce",
    "payment",
    "attach",
    "credit",
    "card",
    "clip"
  ],
  "category": ["editor"],
  "type": "static",
  "hasOutlined": true,
  "date": "30/11/2020"
}
