{
  "name": "autorenew",
  "do": "",
  "dont": "",
  "tags": ["rotate", "cache", "arrow", "cached", "inprogress", "renew"],
  "category": ["action"],
  "type": "static",
  "hasOutlined": true,
  "date": "30/11/2020"
}
