{
  "name": "auto_awesome_motion",
  "do": "",
  "dont": "",
  "tags": [
    "animation",
    "auto",
    "awesome",
    "edit",
    "editing",
    "filter",
    "image",
    "live",
    "motion",
    "photographs",
    "photography",
    "photos",
    "pictures",
    "setting",
    "video"
  ],
  "category": ["image"],
  "type": "static",
  "label": "None",
  "date": "03/03/2021",
  "hasOutlined": true
}
