{
  "name": "av_timer",
  "do": "",
  "dont": "",
  "tags": [
    "timer",
    "seconds",
    "AV",
    "watch",
    "minutes",
    "countdown",
    "clock",
    "time"
  ],
  "category": ["av"],
  "type": "static",
  "hasOutlined": true,
  "date": "30/11/2020"
}
