{
  "name": "bluetooth_drive",
  "do": "",
  "dont": "",
  "tags": [
    "automobile",
    "bluetooth",
    "car",
    "cars",
    "connection",
    "device",
    "direction",
    "maps",
    "paring",
    "symbol",
    "transportation",
    "vehicle"
  ],
  "category": ["device"],
  "type": "static",
  "label": "None",
  "date": "03/03/2021",
  "hasOutlined": true
}
