{
  "name": "branding_watermark",
  "do": "",
  "dont": "",
  "tags": [
    "copyright",
    "identity",
    "format",
    "warermark",
    "logo",
    "stamp",
    "Brandig",
    "emblem"
  ],
  "category": ["av"],
  "type": "static",
  "hasOutlined": true,
  "date": "30/11/2020"
}
