{
  "name": "brightness_2",
  "do": "",
  "dont": "",
  "tags": [
    "brilliance",
    "illumination",
    "luminosity",
    "shine",
    "luster",
    "gloss",
    "glaze",
    "light"
  ],
  "category": ["image"],
  "type": "static",
  "hasOutlined": true,
  "date": "30/11/2020"
}
