{
  "name": "cable",
  "do": "",
  "dont": "",
  "tags": [
    "cable",
    "connect",
    "connection",
    "device",
    "electronics",
    "usb",
    "wire"
  ],
  "category": ["device"],
  "type": "static",
  "label": "None",
  "date": "03/03/2021",
  "hasOutlined": true
}
