{
  "name": "campaign",
  "do": "",
  "dont": "",
  "tags": [
    "announcement",
    "campaign",
    "loud",
    "megaphone",
    "microphone",
    "notification",
    "speaker"
  ],
  "category": ["navigation"],
  "type": "static",
  "hasOutlined": true,
  "date": "30/11/2020"
}
