{
  "name": "cancel",
  "do": "",
  "dont": "",
  "tags": ["remove", "circle", "abort", "omit", "eliminate"],
  "category": ["navigation"],
  "type": "static",
  "hasOutlined": true,
  "date": "30/11/2020"
}
