{
  "name": "clean_hands",
  "do": "",
  "dont": "",
  "tags": ["sanitizer", "cleaner", "soap", "wash hands"],
  "category": ["social"],
  "type": "static",
  "hasOutlined": true,
  "date": "30/11/2020"
}
