{
  "name": "cloud_queue",
  "do": "",
  "dont": "",
  "tags": [
    "cloud",
    "server",
    "storage",
    "remote",
    "queue",
    "line",
    "progression",
    "sequence",
    "awaiting"
  ],
  "category": ["file"],
  "type": "static",
  "hasOutlined": true,
  "date": "30/11/2020"
}
