{
  "name": "cloud_done",
  "do": "",
  "dont": "",
  "tags": [
    "cloud",
    "transfer",
    "excange",
    "server",
    "storage",
    "remote",
    "downloaded",
    "finished",
    "complete",
    "ended"
  ],
  "category": ["file"],
  "type": "static",
  "hasOutlined": true,
  "date": "30/11/2020"
}
