{
  "name": "contacts",
  "do": "",
  "dont": "",
  "tags": [
    "address",
    "profile",
    "people",
    "Contact",
    "number",
    "face",
    "phone",
    "person",
    "information",
    "human",
    "user",
    "account",
    "info"
  ],
  "category": ["communication"],
  "type": "static",
  "hasOutlined": true,
  "date": "30/11/2020"
}
