{
  "name": "deck",
  "do": "",
  "dont": "",
  "tags": [
    "chairs",
    "deck",
    "home",
    "house",
    "outdoors",
    "outside",
    "patio",
    "social",
    "terrace",
    "umbrella",
    "yard"
  ],
  "category": ["social"],
  "type": "static",
  "hasOutlined": true,
  "date": "30/11/2020"
}
