{
  "name": "delete",
  "do": "",
  "dont": "",
  "tags": ["can", "bin", "garbage", "delete", "remove", "trash"],
  "category": ["action"],
  "type": "static",
  "hasOutlined": true,
  "date": "30/11/2020"
}
