{
  "name": "device_thermostat",
  "do": "",
  "dont": "",
  "tags": ["device", "temperature", "thermometer", "thermostat"],
  "category": ["device"],
  "type": "static",
  "label": "None",
  "date": "03/03/2021",
  "hasOutlined": true
}
