{
  "name": "drive_folder_upload",
  "do": "",
  "dont": "",
  "tags": [
    "arrow",
    "arrows",
    "data",
    "doc",
    "document",
    "drive",
    "folder",
    "folders",
    "sheet",
    "slide",
    "storage",
    "up",
    "upload"
  ],
  "category": ["file"],
  "type": "static",
  "label": "None",
  "date": "03/03/2021",
  "hasOutlined": true
}
