{
  "name": "enhanced_encryption",
  "do": "",
  "dont": "",
  "tags": ["decrypt", "decipher", "add", "include", "increase"],
  "category": ["notification"],
  "type": "static",
  "hasOutlined": true,
  "date": "30/11/2020"
}
