{
  "name": "error",
  "do": "",
  "dont": "",
  "tags": [
    "!",
    "notification",
    "symbol",
    "alert",
    "attention",
    "warning",
    "exclamation",
    "circle",
    "danger",
    "error",
    "caution",
    "mark"
  ],
  "category": ["alert"],
  "type": "static",
  "hasOutlined": true,
  "date": "30/11/2020"
}
