{
  "name": "exposure_plus_1",
  "do": "",
  "dont": "",
  "tags": [
    "photography",
    "photo",
    "image",
    "expose",
    "lens",
    "light",
    "positive",
    "number",
    "increment",
    "add",
    "like",
    "plus",
    "one"
  ],
  "category": ["image"],
  "type": "static",
  "hasOutlined": true,
  "date": "30/11/2020"
}
