{
  "name": "exposure",
  "do": "",
  "dont": "",
  "tags": ["photography", "photo", "image", "expose", "lens", "light"],
  "category": ["image"],
  "type": "static",
  "hasOutlined": true,
  "date": "30/11/2020"
}
