{
  "name": "file_download_done",
  "do": "",
  "dont": "",
  "tags": [
    "arrow",
    "arrows",
    "check",
    "down",
    "download",
    "downloads",
    "drive",
    "install",
    "installed",
    "tick",
    "upload"
  ],
  "category": ["file"],
  "type": "static",
  "label": "None",
  "date": "03/03/2021",
  "hasOutlined": true
}
