{
  "name": "file_copy",
  "do": "",
  "dont": "",
  "tags": [
    "content",
    "copy",
    "cut",
    "doc",
    "document",
    "duplicate",
    "file",
    "multiple",
    "past"
  ],
  "category": ["content"],
  "type": "static",
  "hasOutlined": true,
  "date": "30/11/2020"
}
