{
  "name": "first_page",
  "do": "",
  "dont": "",
  "tags": ["move", "beginning", "front", "before"],
  "category": ["navigation"],
  "type": "static",
  "hasOutlined": true,
  "date": "30/11/2020"
}
