{
  "name": "flashlight_off",
  "do": "",
  "dont": "",
  "tags": ["disabled", "enabled", "flashlight", "light", "off", "on", "slash"],
  "category": ["device"],
  "type": "static",
  "label": "None",
  "date": "03/03/2021",
  "hasOutlined": true
}
