{
  "name": "flip_to_back",
  "do": "",
  "dont": "",
  "tags": [
    "arrangement",
    "move",
    "arrange",
    "back",
    "front",
    "sort",
    "flip",
    "order"
  ],
  "category": ["action"],
  "type": "static",
  "hasOutlined": true,
  "date": "30/11/2020"
}
