{
  "name": "format_underlined",
  "do": "",
  "dont": "",
  "tags": [
    "editor",
    "symbol",
    "edit",
    "line",
    "alphabet",
    "type",
    "editing",
    "character",
    "letter",
    "writing",
    "doc",
    "sheet",
    "style",
    "text",
    "under",
    "font",
    "speadsheet"
  ],
  "category": ["editor"],
  "type": "static",
  "hasOutlined": true,
  "date": "30/11/2020"
}
