{
  "name": "forward",
  "do": "",
  "dont": "",
  "tags": ["mail", "arrow", "forward", "playback", "right", "message", "sent"],
  "category": ["content"],
  "type": "static",
  "hasOutlined": true,
  "date": "30/11/2020"
}
