{
  "name": "foundation",
  "do": "",
  "dont": "",
  "tags": ["structure", "understructure", "basis", "base", "premise"],
  "category": ["places"],
  "type": "static",
  "hasOutlined": true,
  "date": "30/11/2020"
}
