{
  "name": "gif",
  "do": "",
  "dont": "",
  "tags": [
    "symbol",
    "character",
    "gif",
    "bitmap",
    "letter",
    "animated",
    "graphics interchange format",
    "alphabet",
    "text",
    "type",
    "animation",
    "font"
  ],
  "category": ["action"],
  "type": "static",
  "hasOutlined": true,
  "date": "30/11/2020"
}
