{
  "name": "grade",
  "do": "",
  "dont": "",
  "tags": [
    "rated",
    "shape",
    "star",
    "rate",
    "grade",
    "rating",
    "favorite",
    "likes"
  ],
  "category": ["action"],
  "type": "static",
  "hasOutlined": true,
  "date": "30/11/2020"
}
