{
  "name": "hide_source",
  "do": "",
  "dont": "",
  "tags": ["circle", "disable", "hide", "shape", "source"],
  "category": ["action"],
  "type": "static",
  "label": "None",
  "date": "03/03/2021",
  "hasOutlined": true
}
