{
  "name": "hide_image",
  "do": "",
  "dont": "",
  "tags": [
    "disabled",
    "enabled",
    "image",
    "landscape",
    "mountain",
    "mountains",
    "off",
    "on",
    "photo",
    "photography",
    "picture",
    "slash"
  ],
  "category": ["image"],
  "type": "static",
  "label": "None",
  "date": "03/03/2021",
  "hasOutlined": true
}
