{
  "name": "history_toggle_off",
  "do": "",
  "dont": "",
  "tags": ["disabled", "log", "story", "document"],
  "category": ["action"],
  "type": "static",
  "hasOutlined": true,
  "date": "30/11/2020"
}
