{
  "name": "horizontal_split",
  "do": "",
  "dont": "",
  "tags": ["bars", "horizontal", "split", "stacked"],
  "category": ["action"],
  "type": "static",
  "hasOutlined": true,
  "date": "30/11/2020"
}
