{
  "name": "hourglass_full",
  "do": "",
  "dont": "",
  "tags": [
    "wait",
    "waiting",
    "minutes",
    "hourglass",
    "countdown",
    "time",
    "loading",
    "full",
    "minute"
  ],
  "category": ["action"],
  "type": "static",
  "hasOutlined": true,
  "date": "30/11/2020"
}
