{
  "name": "insert_comment",
  "do": "",
  "dont": "",
  "tags": ["add", "feedback", "bubble", "chat", "comment", "message"],
  "category": ["editor"],
  "type": "static",
  "hasOutlined": true,
  "date": "30/11/2020"
}
