{
  "name": "label_important",
  "do": "",
  "dont": "",
  "tags": [
    "important",
    "indent",
    "label",
    "mail",
    "stamp",
    "sticker",
    "tag",
    "wing"
  ],
  "category": ["action"],
  "type": "static",
  "hasOutlined": true,
  "date": "30/11/2020"
}
