{
  "name": "laptop_mac",
  "do": "",
  "dont": "",
  "tags": [
    "notebook",
    "computer",
    "microcomputer",
    "portable",
    "apple",
    "ios",
    "macbook"
  ],
  "category": ["hardware"],
  "type": "static",
  "hasOutlined": true,
  "date": "30/11/2020"
}
