{
  "name": "library_books",
  "do": "",
  "dont": "",
  "tags": ["add", "books", "book", "Library", "audio", "collection"],
  "category": ["av"],
  "type": "static",
  "hasOutlined": true,
  "date": "30/11/2020"
}
