{
  "name": "local_car_wash",
  "do": "",
  "dont": "",
  "tags": ["auto", "car", "wash", "local", "vehicle"],
  "category": ["maps"],
  "type": "static",
  "hasOutlined": true,
  "date": "30/11/2020"
}
