{
  "name": "local_fire_department",
  "do": "",
  "dont": "",
  "tags": ["911", "department", "fire", "firefighter", "flame", "hot"],
  "category": ["maps"],
  "type": "static",
  "hasOutlined": true,
  "date": "30/11/2020"
}
