{
  "name": "loop",
  "do": "",
  "dont": "",
  "tags": ["Loop", "rotate", "music", "arrow", "repeat", "arrows"],
  "category": ["av"],
  "type": "static",
  "hasOutlined": true,
  "date": "30/11/2020"
}
