{
  "name": "loyalty",
  "do": "",
  "dont": "",
  "tags": [
    "trip",
    "loyalty",
    "membership",
    "program",
    "tag",
    "credit",
    "travel",
    "card",
    "heart",
    "miles",
    "points"
  ],
  "category": ["action"],
  "type": "static",
  "hasOutlined": true,
  "date": "30/11/2020"
}
