{
  "name": "mark_email_unread",
  "do": "",
  "dont": "",
  "tags": ["message", "not seen", "unseen"],
  "category": ["communication"],
  "type": "static",
  "hasOutlined": true,
  "date": "30/11/2020"
}
