{
  "name": "merge_type",
  "do": "",
  "dont": "",
  "tags": ["margin", "arrow", "format", "text", "type", "combine"],
  "category": ["editor"],
  "type": "static",
  "hasOutlined": true,
  "date": "30/11/2020"
}
