{
  "name": "mic",
  "do": "",
  "dont": "",
  "tags": [
    "voice",
    "Mic",
    "record",
    "sound",
    "noise",
    "hearing",
    "microphone",
    "hear"
  ],
  "category": ["av"],
  "type": "static",
  "hasOutlined": true,
  "date": "30/11/2020"
}
