{
  "name": "mobile_off",
  "do": "",
  "dont": "",
  "tags": [
    "allowed",
    "device",
    "disabled",
    "enabled",
    "mobile",
    "not",
    "off",
    "on",
    "silence",
    "slash"
  ],
  "category": ["device"],
  "type": "static",
  "hasOutlined": true,
  "date": "30/11/2020"
}
