{
  "name": "mode_standby",
  "do": "",
  "dont": "",
  "tags": ["disturb", "mode", "power", "sleep", "standby"],
  "category": ["device"],
  "type": "static",
  "label": "None",
  "date": "03/03/2021",
  "hasOutlined": true
}
