{
  "name": "more_vert",
  "do": "",
  "dont": "",
  "tags": ["more", "vertical ellipsis", "navigation"],
  "category": ["navigation"],
  "type": "static",
  "hasOutlined": true,
  "date": "30/11/2020"
}
