{
  "name": "music_video",
  "do": "",
  "dont": "",
  "tags": ["tv", "watch", "Music", "recording", "screen", "band", "video"],
  "category": ["av"],
  "type": "static",
  "hasOutlined": true,
  "date": "30/11/2020"
}
