{
  "name": "navigation",
  "do": "",
  "dont": "",
  "tags": [
    "navigation",
    "maps",
    "pin",
    "stop",
    "destination",
    "location",
    "place",
    "point",
    "direction"
  ],
  "category": ["maps"],
  "type": "static",
  "hasOutlined": true,
  "date": "30/11/2020"
}
