{
  "name": "network_check",
  "do": "",
  "dont": "",
  "tags": ["speed test", "speedcheck", "odometer", "odograph"],
  "category": ["notification"],
  "type": "static",
  "hasOutlined": true,
  "date": "30/11/2020"
}
