{
  "name": "night_shelter",
  "do": "",
  "dont": "",
  "tags": [
    "asylum",
    "apartment",
    "shed",
    "hut",
    "lodging",
    "refuge",
    "safety",
    "house"
  ],
  "category": ["places"],
  "type": "static",
  "hasOutlined": true,
  "date": "30/11/2020"
}
