{
  "name": "nights_stay",
  "do": "",
  "dont": "",
  "tags": [
    "cloud",
    "crescent",
    "dark",
    "mode",
    "moon",
    "nights",
    "phases",
    "silence",
    "silent",
    "sky",
    "stay",
    "time",
    "weather"
  ],
  "category": ["social"],
  "type": "static",
  "hasOutlined": true,
  "date": "30/11/2020"
}
