{
  "name": "no_accounts",
  "do": "",
  "dont": "",
  "tags": [
    "account",
    "accounts",
    "face",
    "human",
    "no",
    "people",
    "person",
    "profile",
    "thumbnail",
    "unavailable",
    "unidentifiable",
    "unknown",
    "user"
  ],
  "category": ["action"],
  "type": "static",
  "label": "None",
  "date": "03/03/2021",
  "hasOutlined": true
}
