{
  "name": "no_encryption_gmailerrorred",
  "do": "",
  "dont": "",
  "tags": [
    "disabled",
    "enabled",
    "encryption",
    "error",
    "gmail",
    "lock",
    "locked",
    "no",
    "off",
    "on",
    "slash"
  ],
  "category": ["notification"],
  "type": "static",
  "label": "None",
  "date": "03/03/2021",
  "hasOutlined": true
}
