{
  "name": "no_photography",
  "do": "",
  "dont": "",
  "tags": ["photo", "camera", "selfie", "picture", "forbidden"],
  "category": ["places"],
  "type": "static",
  "hasOutlined": true,
  "date": "30/11/2020"
}
