{
  "name": "outdoor_grill",
  "do": "",
  "dont": "",
  "tags": [
    "barbecue",
    "bbq",
    "charcoal",
    "cooking",
    "grill",
    "home",
    "house",
    "outdoor",
    "outside"
  ],
  "category": ["social"],
  "type": "static",
  "hasOutlined": true,
  "date": "30/11/2020"
}
