{
  "name": "panorama_horizontal_select",
  "do": "",
  "dont": "",
  "tags": [
    "angle",
    "horizontal",
    "image",
    "panorama",
    "photo",
    "photography",
    "picture",
    "select",
    "wide"
  ],
  "category": ["image"],
  "type": "static",
  "label": "None",
  "date": "03/03/2021",
  "hasOutlined": true
}
