{
  "name": "playlist_add",
  "do": "",
  "dont": "",
  "tags": ["add", "play", "Playlist", "music", "collection", "list", "plus"],
  "category": ["av"],
  "type": "static",
  "hasOutlined": true,
  "date": "30/11/2020"
}
