{
  "name": "present_to_all",
  "do": "",
  "dont": "",
  "tags": [
    "arrow\nall",
    "screen",
    "share",
    "Presentation",
    "present",
    "device"
  ],
  "category": ["communication"],
  "type": "static",
  "hasOutlined": true,
  "date": "30/11/2020"
}
