{
  "name": "radio_button_checked",
  "do": "",
  "dont": "",
  "tags": [
    "selected",
    "marked",
    "confirmed",
    "chosen",
    "picked",
    "option",
    "image",
    "perspective",
    "ratio",
    "photography",
    "photo",
    "panorama"
  ],
  "category": ["toggle"],
  "type": "static",
  "hasOutlined": true,
  "date": "30/11/2020"
}
