{
  "name": "read_more",
  "do": "",
  "dont": "",
  "tags": [
    "arrow",
    "right",
    "list",
    "more",
    "information",
    "expand",
    "elaborate"
  ],
  "category": ["communication"],
  "type": "static",
  "hasOutlined": true,
  "date": "30/11/2020"
}
