{
  "name": "remove_shopping_cart",
  "do": "",
  "dont": "",
  "tags": [
    "disabled",
    "slash",
    "checkout",
    "cart",
    "enabled",
    "off",
    "remove",
    "on",
    "shopping"
  ],
  "category": ["action"],
  "type": "static",
  "hasOutlined": true,
  "date": "30/11/2020"
}
