{
  "name": "rounded_corner",
  "do": "",
  "dont": "",
  "tags": ["square", "transform", "corner", "shape", "rounded"],
  "category": ["action"],
  "type": "static",
  "hasOutlined": true,
  "date": "30/11/2020"
}
