{
  "name": "screen_share",
  "do": "",
  "dont": "",
  "tags": [
    "mirror",
    "OS",
    "arrow",
    "screen",
    "monitor",
    "iOS",
    "laptop",
    "Android",
    "desktop",
    "web",
    "share",
    "device",
    "hardware"
  ],
  "category": ["communication"],
  "type": "static",
  "hasOutlined": true,
  "date": "30/11/2020"
}
