{
  "name": "segment",
  "do": "",
  "dont": "",
  "tags": [
    "alignment",
    "fonts",
    "format",
    "lines",
    "list",
    "paragraph",
    "part",
    "piece",
    "rule",
    "rules",
    "segment",
    "style",
    "text"
  ],
  "category": ["action"],
  "type": "static",
  "label": "None",
  "date": "03/03/2021",
  "hasOutlined": true
}
