{
  "name": "send",
  "do": "",
  "dont": "",
  "tags": [
    "plane",
    "mail",
    "paper",
    "airplane",
    "right",
    "message",
    "reply",
    "send"
  ],
  "category": ["content"],
  "type": "static",
  "hasOutlined": true,
  "date": "30/11/2020"
}
