{
  "name": "sensors_off",
  "do": "",
  "dont": "",
  "tags": [
    "sense",
    "signal",
    "smart",
    "wireless",
    "movement",
    "connectivity",
    "processors",
    "technology",
    "electric",
    "control",
    "computer",
    "network",
    "inaccessible",
    "decline",
    "reject"
  ],
  "category": ["action"],
  "type": "static",
  "label": "None",
  "date": "03/03/2021",
  "hasOutlined": true
}
