{
  "name": "sentiment_satisfied",
  "do": "",
  "dont": "",
  "tags": ["happy", "emoji", "feedback", "smiley"],
  "category": ["social"],
  "type": "static",
  "hasOutlined": true,
  "date": "30/11/2020"
}
