{
  "name": "settings_input_hdmi",
  "do": "",
  "dont": "",
  "tags": [
    "input",
    "settings",
    "connectivity",
    "plugin",
    "hdmi",
    "connection",
    "plug",
    "points"
  ],
  "category": ["action"],
  "type": "static",
  "hasOutlined": true,
  "date": "30/11/2020"
}
