{
  "name": "signal_wifi_bad",
  "do": "",
  "dont": "",
  "tags": [
    "cell",
    "cellular",
    "data",
    "internet",
    "mobile",
    "network",
    "no",
    "phone",
    "signal",
    "speed",
    "wifi",
    "wireless",
    "x"
  ],
  "category": ["device"],
  "type": "static",
  "label": "None",
  "date": "03/03/2021",
  "hasOutlined": true
}
