{
  "name": "sip",
  "do": "",
  "dont": "",
  "tags": [
    "Dialer",
    "alphabet",
    "call",
    "character",
    "font",
    "initiation",
    "internet",
    "letter",
    "over",
    "phone",
    "protocol",
    "routing",
    "session",
    "sip",
    "symbol",
    "text",
    "type",
    "voice"
  ],
  "category": ["communication"],
  "type": "static",
  "label": "None",
  "date": "03/03/2021",
  "hasOutlined": true
}
