{
  "name": "skip_previous",
  "do": "",
  "dont": "",
  "tags": [
    "next",
    "play",
    "controls",
    "music",
    "previous",
    "arrow",
    "Skip",
    "control",
    "video"
  ],
  "category": ["av"],
  "type": "static",
  "hasOutlined": true,
  "date": "30/11/2020"
}
