{
  "name": "snippet_folder",
  "do": "",
  "dont": "",
  "tags": [
    "brief",
    "fraction",
    "information",
    "particle",
    "code",
    "logic",
    "archive"
  ],
  "category": ["file"],
  "type": "static",
  "hasOutlined": true,
  "date": "30/11/2020"
}
