{
  "name": "snooze",
  "do": "",
  "dont": "",
  "tags": ["timer", "Snooze", "set", "alarm", "z", "clock", "time"],
  "category": ["av"],
  "type": "static",
  "hasOutlined": true,
  "date": "30/11/2020"
}
