{
  "name": "splitscreen",
  "do": "",
  "dont": "",
  "tags": ["layout", "multitasking", "screen", "split", "two"],
  "category": ["device"],
  "type": "static",
  "label": "None",
  "date": "03/03/2021",
  "hasOutlined": true
}
