{
  "name": "sports",
  "do": "",
  "dont": "",
  "tags": [
    "athlete",
    "athletic",
    "blowing",
    "coach",
    "game",
    "instrument",
    "referee",
    "social",
    "sound",
    "sports",
    "warning",
    "whistle"
  ],
  "category": ["social"],
  "type": "static",
  "hasOutlined": true,
  "date": "30/11/2020"
}
