{
  "name": "surfing",
  "do": "",
  "dont": "",
  "tags": [
    "activity",
    "sport",
    "game",
    "extreme",
    "action",
    "winter",
    "Adventure",
    "surfing",
    "vacation",
    "sea",
    "tide",
    "beach"
  ],
  "category": ["social"],
  "type": "static",
  "label": "None",
  "date": "03/03/2021",
  "hasOutlined": true
}
