{
  "name": "tap_and_play",
  "do": "",
  "dont": "",
  "tags": ["hold", "game", "press", "click", "control"],
  "category": ["notification"],
  "type": "static",
  "hasOutlined": true,
  "date": "30/11/2020"
}
