{
  "name": "tapas",
  "do": "",
  "dont": "",
  "tags": ["food", "spanish", "meal", "dinner", "restaurant"],
  "category": ["places"],
  "type": "static",
  "hasOutlined": true,
  "date": "30/11/2020"
}
