{
  "name": "text_fields",
  "do": "",
  "dont": "",
  "tags": [
    "add",
    "input",
    "symbol",
    "character",
    "T",
    "field",
    "letter",
    "alphabet",
    "text",
    "type",
    "font"
  ],
  "category": ["editor"],
  "type": "static",
  "hasOutlined": true,
  "date": "30/11/2020"
}
