{
  "name": "track_changes",
  "do": "",
  "dont": "",
  "tags": [
    "evolve",
    "rotate",
    "shift",
    "changes",
    "circle",
    "lines",
    "track",
    "movement",
    "bullseye",
    "target"
  ],
  "category": ["action"],
  "type": "static",
  "hasOutlined": true,
  "date": "30/11/2020"
}
