{
  "name": "train",
  "do": "",
  "dont": "",
  "tags": [
    "automobile",
    "cars",
    "subway",
    "maps",
    "public",
    "car",
    "rail",
    "direction",
    "train",
    "transportation",
    "vehicle"
  ],
  "category": ["maps"],
  "type": "static",
  "hasOutlined": true,
  "date": "30/11/2020"
}
