{
  "name": "transgender",
  "do": "",
  "dont": "",
  "tags": ["gender", "identity", "glbt", "Sign", "female", "male", "equality"],
  "category": ["social"],
  "type": "static",
  "label": "None",
  "date": "03/03/2021",
  "hasOutlined": true
}
