{
  "name": "tty",
  "do": "",
  "dont": "",
  "tags": ["TeleTYpewriter", "telephone", "keys", "command", "unix", "input"],
  "category": ["places"],
  "type": "static",
  "hasOutlined": true,
  "date": "30/11/2020"
}
