{
  "name": "unfold_more",
  "do": "",
  "dont": "",
  "tags": ["spread", "expand", "extend", "unreveal"],
  "category": ["navigation"],
  "type": "static",
  "hasOutlined": true,
  "date": "30/11/2020"
}
