{
  "name": "video_call",
  "do": "",
  "dont": "",
  "tags": ["call", "conference", "Video", "chat", "screen", "camera", "plus"],
  "category": ["av"],
  "type": "static",
  "hasOutlined": true,
  "date": "30/11/2020"
}
