{
  "name": "view_comfy",
  "do": "",
  "dont": "",
  "tags": ["grid", "ratio", "layout format", "screen", "zoom"],
  "category": ["image"],
  "type": "static",
  "hasOutlined": true,
  "date": "30/11/2020"
}
