{
  "name": "visibility_off",
  "do": "",
  "dont": "",
  "tags": [
    "eye",
    "see",
    "view",
    "reveal",
    "show",
    "disabled",
    "slash",
    "enabled",
    "off",
    "visability",
    "on"
  ],
  "category": ["action"],
  "type": "static",
  "hasOutlined": true,
  "date": "30/11/2020"
}
