{
  "name": "warning",
  "do": "",
  "dont": "",
  "tags": [
    "important",
    "notification",
    "attention",
    "warning",
    "exclamation",
    "danger",
    "caution",
    "mark",
    "triangle",
    "!",
    "symbol",
    "error",
    "problem",
    "alert",
    "report"
  ],
  "category": ["alert"],
  "type": "static",
  "hasOutlined": true,
  "date": "30/11/2020"
}
