{
  "name": "web",
  "do": "",
  "dont": "",
  "tags": [
    "site",
    "website",
    "Web",
    "www",
    "browser",
    "screen",
    "page",
    "internet"
  ],
  "category": ["av"],
  "type": "static",
  "hasOutlined": true,
  "date": "30/11/2020"
}
