{
  "name": "widgets",
  "do": "",
  "dont": "",
  "tags": ["app", "square", "ui", "box", "menu", "widgets", "setting"],
  "category": ["device"],
  "type": "static",
  "hasOutlined": true,
  "date": "30/11/2020"
}
