{
  "name": "wifi",
  "do": "",
  "dont": "",
  "tags": ["internet", "wireless", "network", "signal", "communication"],
  "category": ["notification"],
  "type": "static",
  "hasOutlined": true,
  "date": "30/11/2020"
}
