{
  "name": "wrong_location",
  "do": "",
  "dont": "",
  "tags": [
    "destination",
    "direction",
    "error",
    "location",
    "maps",
    "no",
    "pin",
    "place",
    "stop",
    "wrong",
    "x"
  ],
  "category": ["maps"],
  "type": "static",
  "hasOutlined": true,
  "date": "30/11/2020"
}
