{
  "name": "application",
  "do": "<ul><li>To represent an application.</li></ul>",
  "dont": "<ul><li>To represent an application instance.</li></ul>",
  "tags": ["eos", "application"],
  "category": "development",
  "type": "static",
  "date": "30/11/2020",
  "hasOutlined": true,
  "dateOutlined": "3/17/2021"
}
