{
  "name": "patterns",
  "do": "<ul> <li> To represent predictable behaivor </li> </ul",
  "dont": "<ul> <li> To represent routes </li> </ul>",
  "tags": [
    "eos",
    "design",
    "information",
    "motif",
    "marking",
    "model",
    "norm",
    "guide",
    "blueprint",
    "matrix",
    "method",
    "sequence",
    "structure",
    "scheme",
    "plan",
    "framework"
  ],
  "category": "design",
  "type": "static",
  "date": "30/11/2020"
}
