{
  "name": "proxy",
  "do": "<ul><li>To represent a proxy server or state.</li></ul>",
  "dont": "",
  "tags": ["eos", "intermediary", "surrogate", "stand-in"],
  "category": "virtualization",
  "type": "static",
  "date": "30/11/2020"
}
