{
  "name": "science",
  "do": "<ul><li> </li></ul>",
  "dont": "<ul><li> </li></ul>",
  "tags": [
    "eos",
    "beaker",
    "chemical",
    "chemistry",
    "experiment",
    "flask",
    "glass",
    "laboratory",
    "research",
    "science",
    "tube"
  ],
  "category": "social",
  "type": "static",
  "date": "30/11/2020"
}
